<?xml version="1.0" encoding="UTF-8"?>
<session version="1.0">
<refactoring comment="Rename resource &apos;HmwkFinal/src/color.h&apos; to &apos;Color.h&apos;" description="Rename resource &apos;color.h&apos;" flags="7" id="org.eclipse.ltk.core.refactoring.rename.resource" input="src/color.h" name="Color.h" stamp="1450296191433" updateReferences="true"/>
</session>